{
  "project_info": {
    "project_number": "1050352292786",
    "firebase_url": "https://filmit-31260.firebaseio.com",
    "project_id": "filmit-31260",
    "storage_bucket": "filmit-31260.appspot.com"
  },
  "client": [
    {
      "client_info": {
        "mobilesdk_app_id": "1:1050352292786:android:567f5e3ebef46681",
        "android_client_info": {
          "package_name": "com.chillin.danielcruise.filmapp"
        }
      },
      "oauth_client": [
        {
          "client_id": "1050352292786-n5f7p429l7nigigiu9imesqsfascea0g.apps.googleusercontent.com",
          "client_type": 1,
          "android_info": {
            "package_name": "com.chillin.danielcruise.filmapp",
            "certificate_hash": "4f69ae0696a4f85bc711fe422d1d5d770546e859"
          }
        },
        {
          "client_id": "1050352292786-brrj5cjmjhfclaeguam5aq388iuupkeu.apps.googleusercontent.com",
          "client_type": 3
        }
      ],
      "api_key": [
        {
          "current_key": "AIzaSyDAESUf94c86G8oyIRX8cHkNI0mexiJvWA"
        }
      ],
      "services": {
        "analytics_service": {
          "status": 1
        },
        "appinvite_service": {
          "status": 2,
          "other_platform_oauth_client": [
            {
              "client_id": "1050352292786-brrj5cjmjhfclaeguam5aq388iuupkeu.apps.googleusercontent.com",
              "client_type": 3
            }
          ]
        },
        "ads_service": {
          "status": 2
        }
      }
    }
  ],
  "configuration_version": "1"
}